prj11_autofocus/.Xil/Vivado-31708-huiyi/hw_ila_data_1/zip_work/waveform.vcd
$date
        2024-Aug-13 10:34:59
$end
$version
        Vivado v2021.2 (64-bit)
$end
$timescale
        1ps
$end
$scope module dut $end
$var reg 1 " SPI0_MOSI_O $end
$var reg 1 # SPI0_SCLK_O $end
$var reg 1 $ SPI0_SS_O $end
$var reg 1 % SPI1_MOSI_I $end
$var reg 1 & SPI1_SCLK_I $end
$var reg 1 ' SPI1_SS_I $end
$var reg 1 ( _TRIGGER $end
$var reg 1 ) _WINDOW $end
$var reg 1 * _GAP $end
$upscope $end
$enddefinitions $end
#0
$dumpvars
0"
0#
1$
0%
0&
1'
0(
1)
0*
$end
#105
1"
0$
#106
0"
#115
1#
#125
0#
#134
1#
#144
0#
#153
1#
#163
0#
#173
1#
#182
0#
#192
1#
#201
0#
#211
1#
#221
0#
#230
1#
#240
1"
0#
#249
1#
#256
0'
1(
#257
1&
#258
0&
#259
0"
0#
1$
1&
#260
0$
0&
#261
1&
#262
0&
#263
1&
#264
0&
#265
1&
#266
0&
#267
1&
#268
0&
#269
1&
#270
1#
1%
0&
#271
1&
#272
0%
0&
1'
#273
0'
#279
0#
#289
1#
#298
0#
#308
1#
#318
0#
#327
1#
#337
0#
#346
1#
#356
0#
#366
1#
#375
1"
0#
#385
1#
#394
0"
0#
#404
1#
#411
1&
#412
0&
#413
1&
#414
1"
0#
0&
#415
0"
1&
#416
0&
#417
1&
#418
0&
#419
1&
#420
0&
#421
1&
#422
1%
0&
#423
1&
#424
1#
0%
0&
#425
1&
#426
0&
1'
#427
0'
#434
0#
#443
1#
#453
0#
#462
1#
#472
0#
#482
1#
#491
0#
#501
1#
#510
0#
#520
1#
#530
1"
0#
#539
1#
#549
0#
#558
1#
#566
1&
#567
0&
#568
0"
0#
1$
1&
#569
0&
#570
1&
#571
0&
#572
1&
#573
0&
#574
1&
#575
0&
#576
1&
#577
1%
0&
#578
1&
#579
0&
#580
1&
#581
0%
0&
1'
#582
0'
